Rank	TF	Score	Pvalue
1	GATA5	7.456390176199141	50.53120735085011
2	GATA4	3.464753599802993	19.521686530763503
3	GATA6	3.2597787119602346	18.29494228977427
4	TEAD4	1.794693200632418	10.795020261715365
5	FOS	1.5579521588955767	12.106609258494586
6	FOSL1	1.1500663228553978	8.301980161309586
7	GLI1	1.1312571856517737	10.580834538601437
8	ZFP410	0.9715880364843225	9.084642330642396
9	TEAD1	0.799810021186803	8.249297677875632
10	GATA2	0.7491671815682192	7.85736445511759
11	NFKB1	0.6856547950147609	7.559457215580721
12	GATA3	0.679496399910265	7.797579640437675
13	ZBTB18	0.6164278862746011	7.1173299959303336
14	JUND	0.596110132664481	7.004582745573487
15	TEAD3	0.48016761370154143	5.740626812847097
16	BATF	0.34198101513007506	3.9449105489647422
17	FOSB	0.3263109804647192	3.8364653682554035
18	SPIB	0.31708268862271305	3.810665310015736
19	NHLH2	0.274481621529207	3.6005955081996035
20	FOXF2	0.2672612419124244	2.7236372865391445
21	NEUROD1	0.265942799753941	3.8778912309174984
22	FOXD2	0.24528013611200564	3.7720911671739827
23	FOSL2	0.2189114210296459	3.7494622993128246
24	TP53	0.20851441405707477	2.7235808728463553
25	MYOD1	0.20665657093978418	3.8494625453705
26	SPIC	0.19053574604251855	3.686954185740092
27	NFE2L2	0.1703214398584763	3.540111752665723
28	JUNB	0.16140825176260892	3.478931270915666
29	SMAD3	0.15767912947317686	3.5391191969416127
30	BACH2	0.15252145124931987	3.5931877706241266
31	RELB	0.14196252296156087	3.6041474048749933
32	SOX2	0.13018891098082389	2.7124553414669776
33	RBPJ	0.12934651432290586	3.741013862419777
34	HIC2	0.11470786693528087	2.7285226548033847
35	FOXJ3	0.10783277320343841	2.7328197638519214
36	RELA	0.09534625892455924	2.737906946605335
37	SOX9	0.09205746178983235	2.742315325854122
38	TBX2	0.08980265101338746	2.746030048751095
39	BACH1	0.08451542547285165	2.749030184646699
40	JUN	0.07905694150420949	2.751297976298247
41	TBX6	0.07273929674533079	2.7528191305834184
42	FOXO3	0.062257280636469035	2.753583058893355
43	SOX30	0.04612656040144425	2.753583058893355
